^H:\GIT\SPANKYPROJECT\SPANKYPROJECTCLIENT\SPANKY.RESX
I:\WINDOWS\ASSEMBLY\PUBPOL8.DAT
^H:\GIT\SPANKYPROJECT\SPANKYPROJECTCLIENT\PROPERTIES\RESOURCES.RESX
^H:\GIT\SPANKYPROJECT\SPANKYPROJECTCLIENT\SPANKYLOGIN.RESX
^H:\GIT\SPANKYPROJECT\SPANKYPROJECTCLIENT\TCP\SPANKYRESOURCE.RESX
